…
```r
ggsave(paste(path, plot_title, "_", "umap_", i, "_res_", j, "_DimPlot_Strain_small",  ".png", sep=""), units = "in", width = 4, height = 4,  dpi=300)
```


## check marker genes of each cluster, list top 10 marker genes


```r
load("../03_results/01c_integration_mg/pca_res_search/int_mg_pca_17_res_0.6_markers_proptbl.rda")
cd11b.markers %>% group_by(cluster) %>%  top_n(-10, wt=p_val_adj)
```

```
## # A tibble: 116 x 7
## # Groups:   cluster [13]
##       p_val avg_logFC pct.1 pct.2 p_val_adj cluster gene     
##       <dbl>     <dbl> <dbl> <dbl>     <dbl> <fct>   <chr>    
##  1 3.90e- 3     0.478 0.383 0.199  1.00e+ 0 0       Rpl15-ps2
##  2 1.03e- 9     0.255 0.996 0.947  4.89e- 5 1       Gm37376  
##  3 2.05e- 8     0.263 1     0.99   9.75e- 4 1       P2ry12   
##  4 3.45e- 5     0.269 0.786 0.725  1.00e+ 0 1       Sfi1     
##  5 9.48e- 4     0.272 0.33  0.191  1.00e+ 0 1       Rps18-ps3
##  6 4.87e-36     0.505 1     0.96   2.32e-31 2       Malat1   
##  7 1.12e-28     0.470 0.989 0.911  5.32e-24 2       Gm26905  
##  8 9.30e-28     0.832 0.785 0.484  4.43e-23 2       Gm17131  
##  9 2.29e-24     0.537 0.937 0.76   1.09e-19 2       Macf1    
## 10 7.14e-22     0.615 0.858 0.6    3.40e-17 2       Gm42519  
## # … with 106 more rows
```
…
```r
cd11b.markers_new <- readRDS(paste(path, "mg_markers_new.rds", sep=""))
cd11b.markers_new <- cd11b.markers_new %>% mutate(gene=paste(" ", gene, sep = ""))
write_delim(cd11b.markers_new, paste(path, "mg_markers_new.txt", sep = ""), delim = "\t")
top_20 <- cd11b.markers_new %>% group_by(cluster) %>% filter(avg_logFC>0.3) %>% top_n(20, wt = avg_logFC)
top_20
```

```
## # A tibble: 160 x 7
## # Groups:   cluster [8]
##       p_val avg_logFC pct.1 pct.2 p_val_adj cluster gene     
##       <dbl>     <dbl> <dbl> <dbl>     <dbl> <fct>   <chr>    
##  1 1.22e-38     0.441 1     0.942  5.82e-34 H       " Cx3cr1"
##  2 1.65e-37     0.404 0.998 0.931  7.84e-33 H       " Marcks"
##  3 1.62e-35     0.494 0.941 0.723  7.72e-31 H       " Zfhx3" 
##  4 1.31e-29     0.429 0.999 0.844  6.23e-25 H       " Malat1"
##  5 4.75e-27     0.432 0.888 0.664  2.26e-22 H       " Nrip1" 
##  6 9.32e-27     0.441 0.892 0.676  4.44e-22 H       " Maf"   
##  7 3.32e-26     0.464 0.848 0.627  1.58e-21 H       " Txnip" 
##  8 1.86e-23     0.404 0.93  0.714  8.88e-19 H       " Ssh2"  
##  9 4.28e-22     0.438 0.908 0.7    2.04e-17 H       " Srgap2"
## 10 1.36e-21     0.415 0.9   0.669  6.49e-17 H       " Pnisr" 
## # … with 150 more rows
```
…
