…
### Find marker genes for microglia clusters


```r
mic.markers <- FindAllMarkers(mic, only.pos = FALSE, min.pct = 0.25, logfc.threshold = 0.25, max.cells.per.ident=300)
mic.markers <- mic.markers %>% rownames_to_column(var="symbol")
mic.markers %>% group_by(cluster) %>% top_n(n=-10, wt=p_val_adj) # do NOT put quotation mark on the wt argument # show top markers
```

```
## # A tibble: 109 x 8
## # Groups:   cluster [8]
##    symbol      p_val avg_logFC pct.1 pct.2 p_val_adj cluster gene    
##    <chr>       <dbl>     <dbl> <dbl> <dbl>     <dbl> <fct>   <chr>   
##  1 Ctsb     3.23e-18    -0.641 0.994 0.998  9.52e-14 0       Ctsb    
##  2 B2m      1.62e-16    -0.426 0.999 1      4.78e-12 0       B2m     
##  3 Fth1     4.30e-14    -0.525 0.98  0.995  1.27e- 9 0       Fth1    
##  4 Xist     1.99e-13     0.708 0.578 0.361  5.87e- 9 0       Xist    
##  5 Ctsd     3.57e-13    -0.426 1     1      1.05e- 8 0       Ctsd    
##  6 Lyz2     7.47e-13    -1.21  0.516 0.728  2.20e- 8 0       Lyz2    
##  7 H2-D1    5.65e-12    -0.712 0.702 0.842  1.66e- 7 0       H2-D1   
##  8 Ctsz     1.35e-11    -0.455 0.977 0.991  3.99e- 7 0       Ctsz    
##  9 Cd9      8.80e-11    -0.467 0.964 0.981  2.59e- 6 0       Cd9     
## 10 Ivns1abp 9.17e-11     0.303 0.991 0.956  2.70e- 6 0       Ivns1abp
## # … with 99 more rows
```
…
