…
```
##    Min. 1st Qu.  Median    Mean 3rd Qu.    Max.    NA's 
##  0.2087  0.2928  0.4627  1.5366  0.9656 84.9141      31
```

```r
## DAM markers
top <- 50
df_DAM <- df_comp %>% filter(log10FDR>10, log2FC>0.5, str_detect(Symbol, "^Gm", negate = TRUE)) %>% arrange(desc(log10FDR)) %>% head(50) ## top 49 genes

df_DAM
```

```
## # A tibble: 50 x 7
##    Symbol   UMI_H log2FC log10p log10FDR    p_val p_val_adj
##    <chr>    <dbl>  <dbl>  <dbl>    <dbl>    <dbl>     <dbl>
##  1 Cst7    0.0841   6.08   88.5     84.9 3.05e-89  1.22e-85
##  2 Lyz2    0.421    3.46   70.4     67.1 4.15e-71  8.29e-68
##  3 Lpl     0.0974   4.95   69.2     66.1 6.55e-70  8.72e-67
##  4 Ctsb    3.78     2.04   68.3     65.3 5.55e-69  5.54e-66
##  5 Ctsd   13.8      1.45   65.9     63.0 1.23e-66  9.83e-64
##  6 Apoe    2.92     3.43   62.7     59.9 1.82e-63  1.21e-60
##  7 B2m     7.07     1.37   59.9     57.2 1.40e-60  6.97e-58
##  8 Gnas    1.48     2.15   53.8     51.2 1.76e-54  6.39e-52
##  9 Cd9     1.40     2.07   53.4     50.8 4.40e-54  1.46e-51
## 10 Ank     0.055    4.88   52.0     49.5 1.09e-52  3.35e-50
## # … with 40 more rows
```
…
### Load marker genes of ARM, IRM, CPM in Strooper's dataset
#### The marker genes is not readily uploaded onto the website, we recovered their dataset and calculated marker genes


```r
df_comp <- read_delim("../03_results/06a_mic_Strooper/Seurat_Strooper_markers.txt", delim = "\t")

df_comp %>% group_by(cluster) %>% top_n(n=-10, wt=p_val_adj)
```

```
## # A tibble: 109 x 8
## # Groups:   cluster [8]
##    symbol      p_val avg_logFC pct.1 pct.2 p_val_adj cluster gene    
##    <chr>       <dbl>     <dbl> <dbl> <dbl>     <dbl>   <dbl> <chr>   
##  1 Ctsb     3.23e-18    -0.641 0.994 0.998  9.52e-14       0 Ctsb    
##  2 B2m      1.62e-16    -0.426 0.999 1      4.78e-12       0 B2m     
##  3 Fth1     4.30e-14    -0.525 0.98  0.995  1.27e- 9       0 Fth1    
##  4 Xist     1.99e-13     0.708 0.578 0.361  5.87e- 9       0 Xist    
##  5 Ctsd     3.57e-13    -0.426 1     1      1.05e- 8       0 Ctsd    
##  6 Lyz2     7.47e-13    -1.21  0.516 0.728  2.20e- 8       0 Lyz2    
##  7 H2-D1    5.65e-12    -0.712 0.702 0.842  1.66e- 7       0 H2-D1   
##  8 Ctsz     1.35e-11    -0.455 0.977 0.991  3.99e- 7       0 Ctsz    
##  9 Cd9      8.80e-11    -0.467 0.964 0.981  2.59e- 6       0 Cd9     
## 10 Ivns1abp 9.17e-11     0.303 0.991 0.956  2.70e- 6       0 Ivns1abp
## # … with 99 more rows
```
…
