…
df_comp <- readxl::read_xlsx("../02_data/mic_comp_Amit/Amit_HvsDAM.xlsx", col_types=c("text", rep("numeric",4)))
names(df_comp) <- c("Symbol", "UMI_H", "log2FC", "log10p", "log10FDR")
df_comp <- mutate(df_comp, 
                      p_val=10^(-log10p), 
                      p_val_adj=10^(-log10FDR))
    ## DAM markers of all strains
df_DAM <- df_comp %>% 
  filter(log10FDR>sig_levels[1], log2FC>sig_levels[2], str_detect(Symbol, "^Gm", negate = TRUE)) %>% 
  arrange(desc(log10FDR)) ## top 58 genes
df_DAM
```

```
## # A tibble: 58 x 7
##    Symbol   UMI_H log2FC log10p log10FDR    p_val p_val_adj
##    <chr>    <dbl>  <dbl>  <dbl>    <dbl>    <dbl>     <dbl>
##  1 Cst7    0.0841   6.08   88.5     84.9 3.05e-89  1.22e-85
##  2 Lyz2    0.421    3.46   70.4     67.1 4.15e-71  8.29e-68
##  3 Lpl     0.0974   4.95   69.2     66.1 6.55e-70  8.72e-67
##  4 Ctsb    3.78     2.04   68.3     65.3 5.55e-69  5.54e-66
##  5 Ctsd   13.8      1.45   65.9     63.0 1.23e-66  9.83e-64
##  6 Apoe    2.92     3.43   62.7     59.9 1.82e-63  1.21e-60
##  7 B2m     7.07     1.37   59.9     57.2 1.40e-60  6.97e-58
##  8 Gnas    1.48     2.15   53.8     51.2 1.76e-54  6.39e-52
##  9 Cd9     1.40     2.07   53.4     50.8 4.40e-54  1.46e-51
## 10 Ank     0.055    4.88   52.0     49.5 1.09e-52  3.35e-50
## # … with 48 more rows
```
…
```r
#ARM
sig_levels <- c(6, 0.25)
df_comp <- read_delim("../03_results/06a_mic_Strooper/Seurat_Strooper_markers.txt", delim = "\t")
df_comp <- df_comp %>% 
  filter(cluster==2) %>%  # ARM cluster 2
  filter(-log10(p_val_adj)>sig_levels[1], avg_logFC>sig_levels[2], str_detect(symbol, "^Gm", negate = TRUE)) %>% 
  arrange(desc(-log10(p_val_adj)))## top 59 genes
gene_ARM <- df_comp$gene %>% unlist()
df_comp
```

```
## # A tibble: 59 x 8
##    symbol      p_val avg_logFC pct.1 pct.2 p_val_adj cluster gene  
##    <chr>       <dbl>     <dbl> <dbl> <dbl>     <dbl>   <dbl> <chr> 
##  1 Lyz2.2   1.78e-47     1.28  0.949 0.613  5.25e-43       2 Lyz2  
##  2 Apoe.2   6.15e-47     1.65  0.906 0.507  1.81e-42       2 Apoe  
##  3 Ctsb.1   1.47e-43     0.843 1     0.996  4.34e-39       2 Ctsb  
##  4 Clec7a.1 2.22e-41     1.56  0.689 0.105  6.56e-37       2 Clec7a
##  5 Axl      3.14e-38     1.16  0.534 0.093  9.25e-34       2 Axl   
##  6 Ctsz.1   2.55e-36     0.689 0.999 0.984  7.51e-32       2 Ctsz  
##  7 Cd63.2   1.17e-35     0.880 0.943 0.689  3.45e-31       2 Cd63  
##  8 Fth1.2   1.40e-35     0.753 1     0.989  4.12e-31       2 Fth1  
##  9 Cst7.2   2.44e-34     1.35  0.688 0.155  7.18e-30       2 Cst7  
## 10 Lpl      5.83e-34     1.63  0.586 0.099  1.72e-29       2 Lpl   
## # … with 49 more rows
```
3. Strooper IRM genes

```r
sig_levels <- c(6, 0.25)
df_comp <- read_delim("../03_results/06a_mic_Strooper/Seurat_Strooper_markers.txt", delim = "\t")
df_comp <- df_comp %>% 
  filter(cluster==7) %>%  # IRM cluster 7
  filter(-log10(p_val_adj)>sig_levels[1], avg_logFC>sig_levels[2], str_detect(symbol, "^Gm", negate = TRUE)) %>% 
  arrange(desc(-log10(p_val_adj)))## top 53 genes
gene_IRM <- df_comp$gene %>% unlist()
df_comp
```

```
## # A tibble: 50 x 8
##    symbol        p_val avg_logFC pct.1 pct.2 p_val_adj cluster gene    
##    <chr>         <dbl>     <dbl> <dbl> <dbl>     <dbl>   <dbl> <chr>   
##  1 Rtp4       1.32e-47     1.39  0.626 0.087  3.90e-43       7 Rtp4    
##  2 Ifitm3     1.62e-44     1.41  0.61  0.085  4.77e-40       7 Ifitm3  
##  3 Lgals3bp.6 1.96e-43     1.14  0.922 0.557  5.79e-39       7 Lgals3bp
##  4 Irf7       1.73e-38     1.44  0.448 0.02   5.11e-34       7 Irf7    
##  5 Usp18      3.71e-38     1.30  0.532 0.08   1.09e-33       7 Usp18   
##  6 Ifit3      5.83e-38     1.54  0.452 0.023  1.72e-33       7 Ifit3   
##  7 Oas1a      1.46e-37     0.875 0.512 0.074  4.30e-33       7 Oas1a   
##  8 Sp100      5.03e-37     0.977 0.568 0.137  1.48e-32       7 Sp100   
##  9 Ifi27l2a.2 9.08e-36     0.899 0.556 0.131  2.68e-31       7 Ifi27l2a
## 10 Ifi204     4.04e-35     1.29  0.484 0.069  1.19e-30       7 Ifi204  
## # … with 40 more rows
```
…
